…
# if we unnest, we can see that a new column for pop_millions has been added
gm_nest_example %>%
  slice_head(n = 1) %>%
  tidyr::unnest(country_data)
#> # A tibble: 43 × 7
#>    continent country           year lifeExp        pop gdpPercap pop_millions
#>    <fct>     <fct>            <int>   <dbl>      <int>     <dbl>        <dbl>
#>  1 Asia      Afghanistan       2007    43.8   31889923      975.       31.9  
#>  2 Asia      Azerbaijan        2007    67.5    8017309     7709.        8.02 
#>  3 Asia      Bahrain           2007    75.6     708573    29796.        0.709
#>  4 Asia      Bangladesh        2007    64.1  150448339     1391.      150.   
#>  5 Asia      Bhutan            2007    65.6    2327849     4745.        2.33 
#>  6 Asia      Brunei            2007    77.1     386511    48015.        0.387
#>  7 Asia      Cambodia          2007    59.7   14131858     1714.       14.1  
#>  8 Asia      China             2007    73.0 1318683096     4959.     1319.   
#>  9 Asia      Hong Kong, China  2007    82.2    6980412    39725.        6.98 
#> 10 Asia      India             2007    64.7 1110396331     2452.     1110.   
#> # … with 33 more rows
#> # ℹ Use `print(n = ...)` to see more rows
```
…
# unnesting shows summarised tibbles for each continent
gm_nest_example %>%
  slice(2) %>%
  tidyr::unnest(country_data)
#> # A tibble: 58 × 6
#>    continent  year     n lifeExp      pop gdpPercap
#>    <fct>     <int> <int>   <dbl>    <dbl>     <dbl>
#>  1 Europe     1950    22    65.8 7408264      6343.
#>  2 Europe     1951    18    65.7 7165515      6509.
#>  3 Europe     1952    31    65.9 7124673      5210.
#>  4 Europe     1953    17    67.3 7346100      6774.
#>  5 Europe     1954    17    68.0 7423300      7046.
#>  6 Europe     1955    17    68.5 7499400      7817.
#>  7 Europe     1956    17    68.5 7575800      8224.
#>  8 Europe     1957    31    67.5 7363802      6093.
#>  9 Europe     1958    18    69.6 8308052.     8833.
#> 10 Europe     1959    18    69.6 8379664.     9088.
#> # … with 48 more rows
#> # ℹ Use `print(n = ...)` to see more rows
```
…
